{
	"frames": {
		"blue.png": {
			"frame": {
				"x": 2,
				"y": 2,
				"w": 32,
				"h": 32
			},
			"rotated": false,
			"trimmed": false,
			"spriteSourceSize": {
				"x": 0,
				"y": 0,
				"w": 32,
				"h": 32
			},
			"sourceSize": {
				"w": 32,
				"h": 32
			}
		},
		"default.png": {
			"frame": {
				"x": 38,
				"y": 2,
				"w": 32,
				"h": 32
			},
			"rotated": false,
			"trimmed": false,
			"spriteSourceSize": {
				"x": 0,
				"y": 0,
				"w": 32,
				"h": 32
			},
			"sourceSize": {
				"w": 32,
				"h": 32
			}
		},
		"finish.png": {
			"frame": {
				"x": 74,
				"y": 2,
				"w": 32,
				"h": 32
			},
			"rotated": false,
			"trimmed": false,
			"spriteSourceSize": {
				"x": 0,
				"y": 0,
				"w": 32,
				"h": 32
			},
			"sourceSize": {
				"w": 32,
				"h": 32
			}
		},
		"green.png": {
			"frame": {
				"x": 2,
				"y": 38,
				"w": 32,
				"h": 32
			},
			"rotated": false,
			"trimmed": false,
			"spriteSourceSize": {
				"x": 0,
				"y": 0,
				"w": 32,
				"h": 32
			},
			"sourceSize": {
				"w": 32,
				"h": 32
			}
		},
		"hero-xn.png": {
			"frame": {
				"x": 38,
				"y": 38,
				"w": 32,
				"h": 32
			},
			"rotated": false,
			"trimmed": false,
			"spriteSourceSize": {
				"x": 0,
				"y": 0,
				"w": 32,
				"h": 32
			},
			"sourceSize": {
				"w": 32,
				"h": 32
			}
		},
		"hero-xp.png": {
			"frame": {
				"x": 74,
				"y": 38,
				"w": 32,
				"h": 32
			},
			"rotated": false,
			"trimmed": false,
			"spriteSourceSize": {
				"x": 0,
				"y": 0,
				"w": 32,
				"h": 32
			},
			"sourceSize": {
				"w": 32,
				"h": 32
			}
		},
		"hero-yn.png": {
			"frame": {
				"x": 2,
				"y": 74,
				"w": 32,
				"h": 32
			},
			"rotated": false,
			"trimmed": false,
			"spriteSourceSize": {
				"x": 0,
				"y": 0,
				"w": 32,
				"h": 32
			},
			"sourceSize": {
				"w": 32,
				"h": 32
			}
		},
		"hero-yp.png": {
			"frame": {
				"x": 38,
				"y": 74,
				"w": 32,
				"h": 32
			},
			"rotated": false,
			"trimmed": false,
			"spriteSourceSize": {
				"x": 0,
				"y": 0,
				"w": 32,
				"h": 32
			},
			"sourceSize": {
				"w": 32,
				"h": 32
			}
		},
		"red.png": {
			"frame": {
				"x": 74,
				"y": 74,
				"w": 32,
				"h": 32
			},
			"rotated": false,
			"trimmed": false,
			"spriteSourceSize": {
				"x": 0,
				"y": 0,
				"w": 32,
				"h": 32
			},
			"sourceSize": {
				"w": 32,
				"h": 32
			}
		},
		"star.png": {
			"frame": {
				"x": 110,
				"y": 2,
				"w": 32,
				"h": 32
			},
			"rotated": false,
			"trimmed": false,
			"spriteSourceSize": {
				"x": 0,
				"y": 0,
				"w": 32,
				"h": 32
			},
			"sourceSize": {
				"w": 32,
				"h": 32
			}
		},
		"white.png": {
			"frame": {
				"x": 110,
				"y": 38,
				"w": 32,
				"h": 32
			},
			"rotated": false,
			"trimmed": false,
			"spriteSourceSize": {
				"x": 0,
				"y": 0,
				"w": 32,
				"h": 32
			},
			"sourceSize": {
				"w": 32,
				"h": 32
			}
		}
	},
	"meta": {
		"app": "http://www.codeandweb.com/texturepacker",
		"version": "1.0",
		"image": "spritesheet.png",
		"format": "RGBA8888",
		"size": {
			"w": 144,
			"h": 108
		},
		"scale": "1"
	}
}